{
  "project_info": {
    "project_number": "74229973666",
    "firebase_url": "https://selffit-5af94.firebaseio.com",
    "project_id": "selffit-5af94",
    "storage_bucket": "selffit-5af94.appspot.com"
  },
  "client": [
    {
      "client_info": {
        "mobilesdk_app_id": "1:74229973666:android:704c1ff73484042b41cdfb",
        "android_client_info": {
          "package_name": "com.selffit"
        }
      },
      "oauth_client": [
        {
          "client_id": "74229973666-hq7mbo30n067r2cteqhb7g5cqreunjir.apps.googleusercontent.com",
          "client_type": 3
        }
      ],
      "api_key": [
        {
          "current_key": "AIzaSyBb1dd9KenzMI6Ysyi-KVY1FyzhVKHxlW4"
        }
      ],
      "services": {
        "appinvite_service": {
          "other_platform_oauth_client": [
            {
              "client_id": "74229973666-hq7mbo30n067r2cteqhb7g5cqreunjir.apps.googleusercontent.com",
              "client_type": 3
            }
          ]
        }
      }
    }
  ],
  "configuration_version": "1"
}